{
  "applications": "*",
  "changelogDate": "20231114171708",
  "documentation": "it should be possible to save arbitrary statistics for an administrative unit",
  "dto": "no",
  "embedded": false,
  "entityTableName": "statistic",
  "fields": [
    {
      "fieldName": "name",
      "fieldType": "String",
      "javadoc": "the name of the statistic"
    },
    {
      "fieldName": "key",
      "fieldType": "String",
      "javadoc": "the key of the statistic"
    },
    {
      "fieldName": "value",
      "fieldType": "Double",
      "javadoc": "the value of the statistic"
    },
    {
      "fieldName": "unit",
      "fieldType": "String",
      "javadoc": "the unit of the statistic"
    },
    {
      "fieldName": "date",
      "fieldType": "LocalDate",
      "javadoc": "the date of the statistic"
    },
    {
      "fieldName": "source",
      "fieldType": "String",
      "javadoc": "the name of the statistic source, helps to find which tool this generated"
    }
  ],
  "fluentMethods": true,
  "javadoc": "it should be possible to save arbitrary statistics for an administrative unit",
  "jpaMetamodelFiltering": true,
  "name": "Statistic",
  "pagination": "no",
  "readOnly": true,
  "relationships": [
    {
      "otherEntityName": "administrationUnit",
      "otherEntityRelationshipName": "statistic",
      "relationshipName": "administrationUnit",
      "relationshipType": "many-to-one"
    },
    {
      "otherEntityName": "chargingStation",
      "otherEntityRelationshipName": "statistic",
      "relationshipName": "chargingStation",
      "relationshipType": "many-to-one"
    }
  ],
  "searchEngine": false,
  "service": "serviceClass"
}
